Sentence, Repetition, Mel, wear, li
Melanie-n-3rep ,  1 ,0.196 ,0.155 ,0.140 
Melanie-n-3rep ,  2 ,0.201 ,0.141 ,0.143 
Melanie-n-3rep ,  3 ,0.180 ,0.152 ,0.139 
broad-3rep ,  1 ,0.231 ,0.172 ,0.193 
broad-3rep ,  2 ,0.251 ,0.199 ,0.148 
broad-3rep ,  3 ,0.234 ,0.167 ,0.162 
lily-n-3rep ,  1 ,0.187 ,0.192 ,0.202 
lily-n-3rep ,  2 ,0.160 ,0.175 ,0.182 
lily-n-3rep ,  3 ,0.175 ,0.172 ,0.159 
wearing-n-3rep ,  1 ,0.192 ,0.272 ,0.156 
wearing-n-3rep ,  2 ,0.178 ,0.306 ,0.166 
wearing-n-3rep ,  3 ,0.181 ,0.239 ,0.130 
