Sentence,repetition,Mel1,Mel2,wear1,wear2,li1,ly2
Melanie-n-3rep ,  1 ,242.883 ,152.039 ,142.470 ,136.628 ,136.373 ,125.903 
Melanie-n-3rep ,  2 ,238.508 ,152.126 ,142.165 ,134.020 ,137.981 ,127.909 
Melanie-n-3rep ,  3 ,224.533 ,171.034 ,147.534 ,129.149 ,139.350 ,126.968 
broad-3rep ,  1 ,203.769 ,189.878 ,177.426 ,162.391 ,176.470 ,156.597 
broad-3rep ,  2 ,201.226 ,192.424 ,170.348 ,165.355 ,188.564 ,158.333 
broad-3rep ,  3 ,209.554 ,185.466 ,175.718 ,168.903 ,197.046 ,145.094 
lily-n-3rep ,  1 ,197.794 ,183.823 ,175.633 ,159.629 ,195.317 ,132.510 
lily-n-3rep ,  2 ,198.022 ,194.808 ,178.867 ,166.379 ,190.072 ,140.804 
lily-n-3rep ,  3 ,197.038 ,194.830 ,182.464 ,171.136 ,199.451 ,148.670 
wearing-n-3rep ,  1 ,188.994 ,174.902 ,186.475 ,136.122 ,140.043 ,120.834 
wearing-n-3rep ,  2 ,191.189 ,174.588 ,191.209 ,135.341 ,138.825 ,117.300 
wearing-n-3rep ,  3 ,193.106 ,182.133 ,200.858 ,134.349 ,140.506 ,131.461 
